{"content":[{"id":"57fc61f05ae7e2733558091b","ctime":"2016-10-11 11:52:15","type":"cxz","srcName":"1.txt","dstName":"d:\\tmp\\1.txt","total":0,"success":0,"insertTotal":0,"insertList":[],"updateTotal":0,"updateList":[],"operator":0,"formatCtime":"2016-10-11 11:52:15"},{"id":"57fc83e85ae7e2733558091c","ctime":"2016-10-11 14:17:12","type":"cxz","srcName":"1.txt","dstName":"d:\\tmp\\1.txt","total":0,"success":0,"insertTotal":0,"insertList":[],"updateTotal":0,"updateList":[],"operator":0,"formatCtime":"2016-10-11 14:17:12"},{"id":"57fc9a5f5ae7e2733558091d","ctime":"2016-10-11 15:53:03","type":"cxz","srcName":"1.txt","dstName":"d:\\tmp\\1.txt","total":0,"success":0,"insertTotal":0,"insertList":[],"updateTotal":0,"updateList":[],"operator":0,"formatCtime":"2016-10-11 15:53:03"},{"id":"57fc9add5ae7e2733558091e","ctime":"2016-10-11 15:55:09","type":"cxz","srcName":"1.txt","dstName":"d:\\tmp\\1.txt","total":0,"success":0,"insertTotal":0,"insertList":[],"updateTotal":0,"updateList":[],"operator":0,"formatCtime":"2016-10-11 15:55:09"},{"id":"57fc9ae45ae7e2733558091f","ctime":"2016-10-11 15:55:16","type":"cxz","srcName":"1.txt","dstName":"d:\\tmp\\1.txt","total":0,"success":0,"insertTotal":0,"insertList":[],"updateTotal":0,"updateList":[],"operator":0,"formatCtime":"2016-10-11 15:55:16"},{"id":"57fc9ae95ae7e27335580920","ctime":"2016-10-11 15:55:21","type":"cxz","srcName":"1.txt","dstName":"d:\\tmp\\1.txt","total":0,"success":0,"insertTotal":0,"insertList":[],"updateTotal":0,"updateList":[],"operator":0,"formatCtime":"2016-10-11 15:55:21"},{"id":"57fc9afd5ae7e27335580921","ctime":"2016-10-11 15:55:41","type":"cxz","srcName":"1.txt","dstName":"d:\\tmp\\1.txt","total":0,"success":0,"insertTotal":0,"insertList":[],"updateTotal":0,"updateList":[],"operator":0,"formatCtime":"2016-10-11 15:55:41"},{"id":"57fcb13f5ae7e27335580922","ctime":"2016-10-11 17:30:39","type":"cxz","srcName":"1.txt","dstName":"d:\\tmp\\1.txt","total":0,"success":0,"insertTotal":0,"insertList":[],"updateTotal":0,"updateList":[],"operator":0,"formatCtime":"2016-10-11 17:30:39"},{"id":"57fcb1505ae7e27335580923","ctime":"2016-10-11 17:30:56","type":"cxz","srcName":"1.txt","dstName":"d:\\tmp\\1.txt","total":0,"success":0,"insertTotal":0,"insertList":[],"updateTotal":0,"updateList":[],"operator":0,"formatCtime":"2016-10-11 17:30:56"},{"id":"57fcb2385ae7e27335580924","ctime":"2016-10-11 17:34:48","type":"cxz","srcName":"1.txt","dstName":"d:\\tmp\\1.txt","total":0,"success":0,"insertTotal":0,"insertList":[],"updateTotal":0,"updateList":[],"operator":0,"formatCtime":"2016-10-11 17:34:48"}],
"draw": 1,
"recordsTotal": 57,
"recordsFiltered": 57,
"totalElements":26,"last":false,"totalPages":3,"number":0,"size":10,"sort":null,"first":true,"numberOfElements":10}